…
``` r
LICO_Data
```

    ## # A tibble: 400,554 x 17
    ##    REF_DATE GEO   DGUID `Persons in low~ `Low income lin~ Statistics UOM  
    ##       <dbl> <chr> <chr> <chr>            <chr>            <chr>      <chr>
    ##  1     1976 Cana~ 2016~ All persons      Low income meas~ Number of~ Numb~
    ##  2     1976 Cana~ 2016~ All persons      Low income meas~ Percentag~ Perc~
    ##  3     1976 Cana~ 2016~ All persons      Low income meas~ Average g~ Perc~
    ##  4     1976 Cana~ 2016~ All persons      Low income cut-~ Number of~ Numb~
    ##  5     1976 Cana~ 2016~ All persons      Low income cut-~ Percentag~ Perc~
    ##  6     1976 Cana~ 2016~ All persons      Low income cut-~ Average g~ Perc~
    ##  7     1976 Cana~ 2016~ All persons      Low income cut-~ Number of~ Numb~
    ##  8     1976 Cana~ 2016~ All persons      Low income cut-~ Percentag~ Perc~
    ##  9     1976 Cana~ 2016~ All persons      Low income cut-~ Average g~ Perc~
    ## 10     1976 Cana~ 2016~ All persons      Market basket m~ Number of~ Numb~
    ## # ... with 400,544 more rows, and 10 more variables: UOM_ID <dbl>,
    ## #   SCALAR_FACTOR <chr>, SCALAR_ID <dbl>, VECTOR <chr>, COORDINATE <chr>,
    ## #   VALUE <dbl>, STATUS <chr>, SYMBOL <lgl>, TERMINATED <lgl>, DECIMALS <dbl>
…
  as_tibble()
```

    ## Warning: The `x` argument of `as_tibble.matrix()` must have unique column names if `.name_repair` is omitted as of tibble 2.0.0.
    ## Using compatibility `.name_repair`.
    ## This warning is displayed once every 8 hours.
    ## Call `lifecycle::last_warnings()` to see where this warning was generated.

``` r
colnames(LICO_td) <- colnames(LICO_Part_7)

LICO_td
```

    ## # A tibble: 216 x 9
    ##    Year  Quebec Montreal Ottawa Toronto Winnipeg Calgary Edmonton Vancouver
    ##    <lgl> <lgl>  <lgl>    <lgl>  <lgl>   <lgl>    <lgl>   <lgl>    <lgl>    
    ##  1 NA    NA     NA       NA     NA      NA       NA      NA       NA       
    ##  2 NA    NA     NA       NA     NA      NA       NA      NA       NA       
    ##  3 NA    NA     NA       NA     NA      NA       NA      NA       NA       
    ##  4 NA    NA     NA       NA     NA      NA       NA      NA       NA       
    ##  5 NA    NA     NA       NA     NA      NA       NA      NA       NA       
    ##  6 NA    NA     NA       NA     NA      NA       NA      NA       NA       
    ##  7 NA    NA     NA       NA     NA      NA       NA      NA       NA       
    ##  8 NA    NA     NA       NA     NA      NA       NA      NA       NA       
    ##  9 NA    NA     NA       NA     NA      NA       NA      NA       NA       
    ## 10 NA    NA     NA       NA     NA      NA       NA      NA       NA       
    ## # ... with 206 more rows
…
# readr's read_csv() does not work with the following code for some reason I don't understand
read.csv(paste0(URL_first,
                station,
                URL_second,
                year,
                URL_third,
                month,
                URL_fourth)) %>% 
  
  as_tibble() 
```

    ## # A tibble: 744 x 28
    ##    ï..Longitude..x. Latitude..y. Station.Name Climate.ID Date.Time  Year Month
    ##               <dbl>        <dbl> <chr>             <int> <chr>     <int> <int>
    ##  1            -114.         62.5 YELLOWKNIFE~    2204100 2006-01-~  2006     1
    ##  2            -114.         62.5 YELLOWKNIFE~    2204100 2006-01-~  2006     1
    ##  3            -114.         62.5 YELLOWKNIFE~    2204100 2006-01-~  2006     1
    ##  4            -114.         62.5 YELLOWKNIFE~    2204100 2006-01-~  2006     1
    ##  5            -114.         62.5 YELLOWKNIFE~    2204100 2006-01-~  2006     1
    ##  6            -114.         62.5 YELLOWKNIFE~    2204100 2006-01-~  2006     1
    ##  7            -114.         62.5 YELLOWKNIFE~    2204100 2006-01-~  2006     1
    ##  8            -114.         62.5 YELLOWKNIFE~    2204100 2006-01-~  2006     1
    ##  9            -114.         62.5 YELLOWKNIFE~    2204100 2006-01-~  2006     1
    ## 10            -114.         62.5 YELLOWKNIFE~    2204100 2006-01-~  2006     1
    ## # ... with 734 more rows, and 21 more variables: Day <int>, Time <chr>,
    ## #   Temp..Â.C. <dbl>, Temp.Flag <lgl>, Dew.Point.Temp..Â.C. <dbl>,
    ## #   Dew.Point.Temp.Flag <chr>, Rel.Hum.... <int>, Rel.Hum.Flag <chr>,
    ## #   Wind.Dir..10s.deg. <int>, Wind.Dir.Flag <lgl>, Wind.Spd..km.h. <int>,
    ## #   Wind.Spd.Flag <lgl>, Visibility..km. <dbl>, Visibility.Flag <lgl>,
    ## #   Stn.Press..kPa. <dbl>, Stn.Press.Flag <lgl>, Hmdx <lgl>, Hmdx.Flag <lgl>,
    ## #   Wind.Chill <int>, Wind.Chill.Flag <lgl>, Weather <chr>
…
